
[1m[94mBuild[0m

[1m[94mRun cells [0m
CELL UID       DIAMETER         CHANCE

30;0
30.0424;0
30.0846;0
30.1268;0
30.1688;0
30.2107;0
30.2525;0
30.2942;0
30.3358;0
30.3772;0
30.4185;0
30.4598;0
30.5009;0
30.5419;0
30.5828;0
30.6236;0
30.6642;0
30.7048;0
30.7453;0
30.7856;0
30.8259;0
30.866;0
30.9061;0
30.946;0
30.9858;0
31.0256;0
31.0652;0
31.1047;0
31.1442;0
31.1835;0
31.2227;0
31.2619;0
31.3009;0
31.3398;0
31.3787;0
31.4174;0
31.4561;0
31.4946;0
31.5331;0
31.5715;0
31.6097;0
31.6479;0
31.686;0
31.724;0
31.7619;0
31.7997;0
31.8375;0
31.8751;0
31.9127;0
31.9501;0
31.9875;0
32.0248;0.200619
32.062;0.201546
32.0991;0.20247
32.1361;0.203389
32.1731;0.204303
32.2099;0.205214
32.2467;0.20612
32.2834;0.207023
32.32;0.207921
32.3565;0.208815
32.393;0.209705
32.4293;0.210591
32.4656;0.211473
32.5018;0.212352
32.5379;0.213226
32.574;0.214096
32.6099;0.214963
32.6458;0.215826
32.6816;0.216685
32.7173;0.21754
32.753;0.218392
32.7885;0.21924
32.824;0.220084
32.8594;0.220924
32.8948;0.221761
32.9301;0.222595
32.9652;0.223424
33.0003;0.224251
33.0354;0.225073
33.0704;0.225893
33.1052;0.226709
33.1401;0.227521
33.1748;0.22833
33.2095;0.229136
33.2441;0.229938
33.2786;0.230737
33.313;0.231532
33.3474;0.232325
33.3817;0.233114
33.416;0.2339
33.4502;0.234682
33.4843;0.235462
33.5183;0.236238
33.5523;0.237011
33.5862;0.237781
33.62;0.238548
33.6537;0.239312
33.6874;0.240073
33.7211;0.240831
33.7546;0.241585
33.7881;0.242337
33.8215;0.243086
33.8549;0.243832
33.8882;0.244575
33.9214;0.245315
33.9546;0.246052
33.9877;0.246786
34.0207;0.247517
34.0537;0.248246
34.0866;0.248972
34.1194;0.249695
34.1522;0.250415
34.1849;0.251132
34.2176;0.251847
34.2502;0.252559
34.2827;0.253268
34.3152;0.253975
34.3476;0.254678
34.3799;0.25538
34.4122;0.256078
34.4444;0.256774
34.4766;0.257468
34.5087;0.258158
34.5408;0.258847
34.5727;0.259532
34.6047;0.260216
34.6365;0.260896
34.6684;0.261574
34.7001;0.26225
34.7318;0.262923
34.7634;0.263594
34.795;0.264262
34.8265;0.264928
34.858;0.265592
34.8894;0.266253
34.9208;0.266912
34.9521;0.267568
34.9833;0.268222
35.0145;0.268874
35.0456;0.269523
35.0767;0.27017
35.1077;0.270815
35.1387;0.271458
35.1696;0.272098
35.2004;0.272736
35.2312;0.273372
35.262;0.274005
35.2927;0.274637
35.3233;0.275266
35.3539;0.275893
35.3844;0.276518
35.4149;0.27714
35.4453;0.277761
35.4757;0.278379
35.506;0.278996
35.5363;0.27961
35.5665;0.280222
35.5967;0.280832
35.6268;0.28144
35.6569;0.282046
35.6869;0.28265
35.7169;0.283252
35.7468;0.283852
35.7767;0.28445
35.8065;0.285045
35.8362;0.285639
35.866;0.286231
35.8956;0.286821
35.9252;0.287409
35.9548;0.287995
35.9843;0.28858
36.0138;0.289162
36.0432;0.289742
36.0726;0.290321
36.102;0.290897
36.1312;0.291472
36.1605;0.292045
36.1897;0.292616
36.2188;0.293185
36.2479;0.293752
36.2769;0.294318
36.3059;0.294881
36.3349;0.295443
36.3638;0.296003
36.3927;0.296562
36.4215;0.297118
36.4503;0.297673
36.479;0.298226
36.5077;0.298778
36.5363;0.299327
36.5649;0.299875
36.5935;0.300421
36.622;0.300966
36.6504;0.301509
36.6788;0.30205
36.7072;0.302589
36.7355;0.303127
36.7638;0.303663
36.792;0.304197
36.8202;0.30473
36.8484;0.305261
36.8765;0.305791
36.9046;0.306319
36.9326;0.306845
36.9606;0.30737
36.9885;0.307893
37.0164;0.308415
37.0443;0.308935
37.0721;0.309453
37.0999;0.30997
37.1276;0.310486
37.1553;0.311
37.1829;0.311512
37.2105;0.312023
37.2381;0.312532
37.2656;0.31304
37.2931;0.313546
37.3206;0.314051
37.348;0.314554
37.3753;0.315056
37.4026;0.315556
37.4299;0.316055
37.4572;0.316553
37.4844;0.317049
37.5115;0.317543
37.5387;0.318037
37.5658;0.318528
37.5928;0.319019
37.6198;0.319508
37.6468;0.319995
37.6737;0.320481
37.7006;0.320966
37.7275;0.321449
37.7543;0.321931
37.7811;0.322412
37.8078;0.322891
37.8345;0.323369
37.8612;0.323846
37.8878;0.324321
37.9144;0.324795
37.9409;0.325267
37.9675;0.325738
37.9939;0.326208
38.0204;0.326677
38.0468;0.327144
38.0732;0.32761
38.0995;0.328075
38.1258;0.328538
38.152;0.329001
38.1783;0.329461
38.2045;0.329921
38.2306;0.330379
38.2567;0.330837
38.2828;0.331292
38.3089;0.331747
38.3349;0.332201
38.3608;0.332653
38.3868;0.333104
38.4127;0.333553
38.4385;0.334002
38.4644;0.334449
38.4902;0.334895
38.5159;0.33534
38.5417;0.335784
38.5674;0.336227
38.593;0.336668
38.6187;0.337108
38.6443;0.337547
38.6698;0.337985
38.6954;0.338422
38.7208;0.338857
38.7463;0.339292
38.7717;0.339725
38.7971;0.340157
38.8225;0.340588
38.8478;0.341018
38.8731;0.341447
38.8984;0.341875
38.9236;0.342301
38.9488;0.342727
38.974;0.343151
38.9991;0.343574
39.0242;0.343997
39.0492;0.344418
39.0743;0.344838
39.0993;0.345257
39.1243;0.345674
39.1492;0.346091
39.1741;0.346507
39.199;0.346922
39.2238;0.347335
39.2486;0.347748
39.2734;0.348159
39.2982;0.34857
39.3229;0.348979
39.3476;0.349388
39.3722;0.349795
39.3968;0.350202
39.4214;0.350607
39.446;0.351012
39.4705;0.351415
39.495;0.351817
39.5195;0.352219
39.544;0.352619
39.5684;0.353018
39.5927;0.353417
39.6171;0.353814
39.6414;0.354211
39.6657;0.354606
39.69;0.355001
39.7142;0.355394
39.7384;0.355787
39.7626;0.356179
39.7867;0.356569
39.8108;0.356959
39.8349;0.357348
39.859;0.357736
39.883;0.358123
39.907;0.358509
39.931;0.358894
39.9549;0.359278
39.9788;0.359661
40.0027;0.360044
40.0266;0.360425
40.0504;0.360805
40.0742;0.361185
40.098;0.361564
40.1217;0.361942
40.1454;0.362319
40.1691;0.362695
40.1928;0.36307
40.2164;0.363444
40.24;0.363817
40.2636;0.36419
40.2871;0.364561
40.3107;0.364932
40.3341;0.365302
40.3576;0.365671
40.3811;0.366039
40.4045;0.366407
40.4278;0.366773
40.4512;0.367139
40.4745;0.367504
40.4978;0.367868
40.5211;0.368231
40.5444;0.368593
40.5676;0.368954
40.5908;0.369315
40.614;0.369675
40.6371;0.370034
40.6602;0.370392
40.6833;0.370749
40.7064;0.371106
40.7294;0.371462
40.7524;0.371817
40.7754;0.372171
40.7984;0.372524
40.8213;0.372877
40.8442;0.373228
40.8671;0.373579
40.89;0.373929
40.9128;0.374279
40.9356;0.374627
40.9584;0.374975
40.9811;0.375322
41.0039;0.375669
41.0266;0.376014
41.0493;0.376359
41.0719;0.376703
41.0945;0.377046
41.1171;0.377389
41.1397;0.37773
41.1623;0.378071
41.1848;0.378412
41.2073;0.378751
41.2298;0.37909
41.2523;0.379428
41.2747;0.379765
41.2971;0.380102
41.3195;0.380438
41.3419;0.380773
41.3642;0.381107
41.3865;0.381441
41.4088;0.381774
41.4311;0.382106
41.4533;0.382438
41.4755;0.382768
41.4977;0.383098
41.5199;0.383428
41.542;0.383757
41.5641;0.384085
41.5862;0.384412
41.6083;0.384738
41.6304;0.385064
41.6524;0.38539
41.6744;0.385714
41.6964;0.386038
41.7183;0.386361
41.7403;0.386684
41.7622;0.387005
41.7841;0.387326
41.8059;0.387647
41.8278;0.387967
41.8496;0.388286
41.8714;0.388604
41.8932;0.388922
41.9149;0.389239
41.9367;0.389556
41.9584;0.389872
41.9801;0.390187
42.0017;0.390501
42.0234;0.390815
42.045;0.391128
42.0666;0.391441
42.0882;0.391753
42.1097;0.392064
42.1312;0.392375
42.1527;0.392685
42.1742;0.392994
42.1957;0.393303
42.2171;0.393611
42.2386;0.393919
42.26;0.394226
42.2813;0.394532
42.3027;0.394838
42.324;0.395143
42.3453;0.395447
42.3666;0.395751
42.3879;0.396054
42.4091;0.396357
42.4304;0.396659
42.4516;0.39696
42.4728;0.397261
42.4939;0.397561
42.5151;0.397861
42.5362;0.39816
42.5573;0.398458
42.5784;0.398756
42.5994;0.399053
42.6205;0.39935
42.6415;0.399646
42.6625;0.399941
42.6835;0.400236
42.7044;0.40053
42.7254;0.400824
42.7463;0.401117
42.7672;0.40141
42.788;0.401702
42.8089;0.401993
Simulation completed successfully!

[1m[92mFinished successfully[0m
